…
``` r
# \donttest{
sri_lanka <- gb_get(
  "Sri Lanka",
  adm_lvl = "ADM3",
  simplified = TRUE
)

sri_lanka
#> Simple feature collection with 330 features and 5 fields
#> Geometry type: MULTIPOLYGON
#> Dimension:     XY
#> Bounding box:  xmin: 79.51937 ymin: 5.918507 xmax: 81.8772 ymax: 9.835718
#> Geodetic CRS:  WGS 84
#> # A tibble: 330 × 6
#>    shapeName     shapeISO shapeID shapeGroup shapeType                  geometry
#>  * <chr>         <chr>    <chr>   <chr>      <chr>            <MULTIPOLYGON [°]>
#>  1 Manmunai Sou… ""       854035… LKA        ADM3      (((81.81611 7.459573, 81…
#>  2 Koralai Patt… ""       854035… LKA        ADM3      (((81.51482 7.922462, 81…
#>  3 Thenmaradchi… ""       854035… LKA        ADM3      (((80.18725 9.622936, 80…
#>  4 Manmunai Sou… ""       854035… LKA        ADM3      (((81.64394 7.52247, 81.…
#>  5 Manmunai Pat… ""       854035… LKA        ADM3      (((81.78383 7.601931, 81…
#>  6 Koralai Pattu ""       854035… LKA        ADM3      (((81.51629 7.892779, 81…
#>  7 Porativu Pat… ""       854035… LKA        ADM3      (((81.64394 7.52247, 81.…
#>  8 Eravur Pattu  ""       854035… LKA        ADM3      (((81.54727 7.534724, 81…
#>  9 Mundel        ""       854035… LKA        ADM3      (((79.82017 7.96686, 79.…
#> 10 Addalaichenai ""       854035… LKA        ADM3      (((81.86513 7.300187, 81…
#> # ℹ 320 more rows
…
