Get geoBoundaries data — get_geobn • tidygeoboundaries
…
    Examples

# \donttest{
sri_lanka <- get_geobn(
  country = "Sri Lanka", boundary_type = "ADM3",
  simplified = TRUE
)

sri_lanka
#> Simple feature collection with 330 features and 5 fields
#> Geometry type: GEOMETRY
#> Dimension:     XY
#> Bounding box:  xmin: 79.51937 ymin: 5.918507 xmax: 81.8772 ymax: 9.835718
#> Geodetic CRS:  WGS 84
#> # A tibble: 330 × 6
#>    shapeName     shapeISO shapeID shapeGroup shapeType                  geometry
#>  * <chr>         <chr>    <chr>   <chr>      <chr>                <GEOMETRY [°]>
#>  1 Manmunai Sou… ""       854035… LKA        ADM3      POLYGON ((81.81611 7.459…
#>  2 Koralai Patt… ""       854035… LKA        ADM3      MULTIPOLYGON (((81.51482…
#>  3 Thenmaradchi… ""       854035… LKA        ADM3      MULTIPOLYGON (((80.18725…
#>  4 Manmunai Sou… ""       854035… LKA        ADM3      MULTIPOLYGON (((81.64394…
#>  5 Manmunai Pat… ""       854035… LKA        ADM3      POLYGON ((81.78383 7.601…
#>  6 Koralai Pattu ""       854035… LKA        ADM3      MULTIPOLYGON (((81.51629…
#>  7 Porativu Pat… ""       854035… LKA        ADM3      POLYGON ((81.64394 7.522…
#>  8 Eravur Pattu  ""       854035… LKA        ADM3      POLYGON ((81.54727 7.534…
#>  9 Mundel        ""       854035… LKA        ADM3      POLYGON ((79.82017 7.966…
#> 10 Addalaichenai ""       854035… LKA        ADM3      POLYGON ((81.86513 7.300…
#> # ℹ 320 more rows
…
